{
  "version": 1,
  "disable_existing_loggers": false,
  "formatters": {
    "default": {
      "format": "%(asctime)s - %(name)s - %(levelname)s - %(message)s"
    },
    "advanced": {
      "format": "[%(asctime)s] [%(levelname)s] [%(name)s]: %(message)s \t[F: %(filename)s:%(lineno)d]"
    }
  },
  "handlers": {
    "console": {
      "class": "logging.StreamHandler",
      "level": "DEBUG",
      "formatter": "advanced",
      "stream": "ext://sys.stdout"
    },
    "info_file_handler": {
      "class": "logging.handlers.RotatingFileHandler",
      "level": "INFO",
      "formatter": "advanced",
      "filename": "logs/info.log",
      "maxBytes": 10485760,
      "backupCount": 20,
      "encoding": "utf8"
    },
    "error_file_handler": {
      "class": "logging.handlers.RotatingFileHandler",
      "level": "ERROR",
      "formatter": "advanced",
      "filename": "logs/errors.log",
      "maxBytes": 10485760,
      "backupCount": 20,
      "encoding": "utf8"
    },
    "warning_file_handler": {
      "class": "logging.handlers.RotatingFileHandler",
      "level": "WARNING",
      "formatter": "advanced",
      "filename": "logs/warnings.log",
      "maxBytes": 10485760,
      "backupCount": 20,
      "encoding": "utf8"
    }
  },
  "loggers": {
    "TeleBot": {
      "level": "INFO",
      "handlers": [],
      "propagate": "no"
    },
    "requests.packages.urllib3.connectionpool": {
      "level": "ERROR",
      "handlers": [],
      "propagate": "no"
    }
  },
  "root": {
    "level": "DEBUG",
    "handlers": [
      "console"
    ],
    "propagate": "yes"
  }
}